{
  "promo": 2022,
  "semester": 7,
  "projects": [
    {
      "module": "M - 3D Game Engine creation",
      "project": "3D Game Engine creation - Project",
      "start": "2020-09-28",
      "end": "2020-11-15",
      "bttf": false
    },
    {
      "module": "M - Agile Experience",
      "project": "Agile experience - Project",
      "start": "2020-09-14",
      "end": "2020-11-01",
      "bttf": false
    },
    {
      "module": "M - Agile at scale in a technological context",
      "project": "Agile at scale in a technological context - Project",
      "start": "2020-09-14",
      "end": "2020-11-01",
      "bttf": false
    },
    {
      "module": "M - Audio Engineering : design for users",
      "project": "Audio Engineering : design for users - Project",
      "start": "2020-11-09",
      "end": "2020-12-27",
      "bttf": false
    },
    {
      "module": "M - Big Data Analytics",
      "project": "Big Data Analytics - Project",
      "start": "2020-12-21",
      "end": "2021-01-10",
      "bttf": false
    },
    {
      "module": "M - Blockchain Principes",
      "project": "Blockchain Project",
      "start": "2020-11-09",
      "end": "2020-12-27",
      "bttf": false
    },
    {
      "module": "M - Blockchain on Hyperledger and Besu",
      "project": "Blockchain on Hyperledger and Besu - Project",
      "start": "2020-11-23",
      "end": "2021-01-10",
      "bttf": false
    },
    {
      "module": "M - Build your own PaaS",
      "project": "Build your own PaaS - Project",
      "start": "2020-09-14",
      "end": "2020-10-04",
      "bttf": false
    },
    {
      "module": "M - Business Leader",
      "project": "Business Leader - Project",
      "start": "2020-09-14",
      "end": "2020-10-04",
      "bttf": false
    },
    {
      "module": "M - Business Leader",
      "project": "Business Leader - Project",
      "start": "2020-11-09",
      "end": "2020-11-29",
      "bttf": false
    },
    {
      "module": "M - Business Strategist",
      "project": "Business Strategist - Project",
      "start": "2020-10-12",
      "end": "2020-11-01",
      "bttf": false
    },
    {
      "module": "M - Business Strategist",
      "project": "Business Strategist - Project",
      "start": "2020-11-23",
      "end": "2020-12-19",
      "bttf": false
    },
    {
      "module": "M - Cloud Computing Fundamentals",
      "project": "Cloud Computing Fundamentals - Project",
      "start": "2020-09-28",
      "end": "2020-11-15",
      "bttf": false
    },
    {
      "module": "M - Computational Law and contracts",
      "project": "Computational Law and contracts - Project",
      "start": "2020-09-14",
      "end": "2020-11-01",
      "bttf": false
    },
    {
      "module": "M - Database design and datamodelling",
      "project": "Database design and datamodelling - Project",
      "start": "2020-11-09",
      "end": "2020-11-29",
      "bttf": false
    },
    {
      "module": "M - Design Sprint",
      "project": "Design Sprint - Project",
      "start": "2020-11-09",
      "end": "2020-11-29",
      "bttf": false
    },
    {
      "module": "M - Digital Economy",
      "project": "M - Digital Economy",
      "start": "2020-10-12",
      "end": "2020-11-02",
      "bttf": false
    },
    {
      "module": "M - Digital Transformation And Ecommerce",
      "project": "Digital Transformation and ECommerce - Business Case Sunglass Group",
      "start": "2020-09-14",
      "end": "2020-11-03",
      "bttf": false
    },
    {
      "module": "M - Drive traffic and optimize your website for search engines",
      "project": "Drive traffic and optimize your website for search engines - Project",
      "start": "2020-09-28",
      "end": "2020-10-18",
      "bttf": false
    },
    {
      "module": "M - EIP / Epitech Innovative Project 1&2",
      "project": "EIP - Groupes de projet",
      "start": "2020-08-17",
      "end": "2021-08-28",
      "bttf": false
    },
    {
      "module": "M - English Language for Tech - Online Media Production",
      "project": "English Language for Tech - Online Media Production - Project",
      "start": "2020-10-26",
      "end": "2020-11-15",
      "bttf": false
    },
    {
      "module": "M - Entrepreneurship Outline",
      "project": "Entrepreneurship Outline - Project",
      "start": "2020-11-09",
      "end": "2020-11-29",
      "bttf": false
    },
    {
      "module": "M - Finance for entrepreneur - Balance sheet and profit (income statement)",
      "project": "Balance sheet and profit & loss(income statement)",
      "start": "2020-09-28",
      "end": "2020-10-18",
      "bttf": false
    },
    {
      "module": "M - Finance for entrepreneur - Cashflow statement & Project Plan",
      "project": "Cashflow statement & Project Plan",
      "start": "2020-10-26",
      "end": "2020-11-21",
      "bttf": false
    },
    {
      "module": "M - Game creation using Unreal Engine",
      "project": "Game creation using Unreal Engine - Project",
      "start": "2020-11-23",
      "end": "2021-01-10",
      "bttf": false
    },
    {
      "module": "M - ICT - Public Policies & Funding",
      "project": "M - ICT Public Statements & Policies",
      "start": "2020-09-28",
      "end": "2020-10-19",
      "bttf": false
    },
    {
      "module": "M - IP and Privacy",
      "project": "M - IP and Privacy",
      "start": "2020-10-26",
      "end": "2020-11-16",
      "bttf": false
    },
    {
      "module": "M - Image Processing and Augmented Reality",
      "project": "AR Advanced - Project",
      "start": "2020-11-09",
      "end": "2020-11-29",
      "bttf": false
    },
    {
      "module": "M - Information Systems management",
      "project": "Information Systems management - Project",
      "start": "2020-11-23",
      "end": "2021-01-10",
      "bttf": false
    },
    {
      "module": "M - Innovating Like A Startup",
      "project": "Innovating Like A Startup - Project",
      "start": "2020-11-09",
      "end": "2020-12-27",
      "bttf": false
    },
    {
      "module": "M - Innovation design : Moonshot Thinking and Rapid Prototyping",
      "project": "Innovation design : Moonshot Thinking and Rapid Prototyping - Project",
      "start": "2020-11-09",
      "end": "2020-11-29",
      "bttf": false
    },
    {
      "module": "M - International Leaders : overcome cultural biases",
      "project": "International Leaders : overcome cultural biases - Project",
      "start": "2020-09-14",
      "end": "2020-10-04",
      "bttf": false
    },
    {
      "module": "M - Introduction to (Node)JS",
      "project": "Introduction to (Node)JS - Project",
      "start": "2020-10-26",
      "end": "2020-11-15",
      "bttf": false
    },
    {
      "module": "M - Introduction to Augmented Reality using Unity",
      "project": "AR Basics - Project",
      "start": "2020-10-12",
      "end": "2020-11-01",
      "bttf": false
    },
    {
      "module": "M - Introduction to Information Security and Offensive Security",
      "project": "Introduction to Information Security and Offensive Security - Project",
      "start": "2020-10-12",
      "end": "2020-11-01",
      "bttf": false
    },
    {
      "module": "M - Introduction to Project Management",
      "project": "Project Management - Project",
      "start": "2020-09-28",
      "end": "2020-10-18",
      "bttf": false
    },
    {
      "module": "M - Introduction to Project Management",
      "project": "Project Management - Project",
      "start": "2020-10-26",
      "end": "2020-11-15",
      "bttf": false
    },
    {
      "module": "M - Introduction to quantum computing",
      "project": "Quantum computer - Project",
      "start": "2020-09-14",
      "end": "2020-10-04",
      "bttf": false
    },
    {
      "module": "M - Lean Startup",
      "project": "Lean Startup - Project",
      "start": "2020-09-28",
      "end": "2020-11-15",
      "bttf": false
    },
    {
      "module": "M - Market Finance Introduction : technical analysis and Algorithm",
      "project": "Market Finance Introduction : technical analysis and Algorithm - Project",
      "start": "2020-09-14",
      "end": "2020-11-01",
      "bttf": false
    },
    {
      "module": "M - Microservices & Distributed architectures",
      "project": "Microservices & Distributed architectures - Project",
      "start": "2020-11-23",
      "end": "2021-01-10",
      "bttf": false
    },
    {
      "module": "M - Modern Frontends with TDD",
      "project": "Modern Frontends with TDD - Project",
      "start": "2020-11-23",
      "end": "2020-12-13",
      "bttf": false
    },
    {
      "module": "M - Professional and Collective Practice",
      "project": "PCP - PROJECT",
      "start": "2020-09-14",
      "end": "2020-10-04",
      "bttf": false
    },
    {
      "module": "M - Professional and Collective Practice",
      "project": "PCP - PROJECT",
      "start": "2020-10-12",
      "end": "2020-11-01",
      "bttf": false
    },
    {
      "module": "M - React Web development: mySpotify",
      "project": "mySpotify",
      "start": "2020-10-12",
      "end": "2020-11-01",
      "bttf": false
    },
    {
      "module": "M - Working in International Virtual Environments",
      "project": "Working in International Virtual Environments - Project",
      "start": "2020-11-09",
      "end": "2020-11-29",
      "bttf": false
    },
    {
      "module": "M - Writing Skills",
      "project": "Writing Skills - Project",
      "start": "2020-11-09",
      "end": "2020-11-30",
      "bttf": false
    }
  ]
}